# Blender MTL File: 'gun1-set-UVmap.blend'
# Material Count: 8

newmtl Material
Ns 96.078431
Ka 1.000000 1.000000 1.000000
Kd 0.044758 0.044758 0.044758
Ks 0.500000 0.500000 0.500000
Ke 0.000000 0.000000 0.000000
Ni 1.000000
d 1.000000
illum 2

newmtl Material.001
Ns 96.078431
Ka 1.000000 1.000000 1.000000
Kd 0.017704 0.017704 0.017704
Ks 0.000000 0.000000 0.000000
Ke 0.000000 0.000000 0.000000
Ni 1.000000
d 1.000000
illum 1

newmtl Material.002
Ns 96.078431
Ka 1.000000 1.000000 1.000000
Kd 0.231994 0.231994 0.231994
Ks 0.500000 0.500000 0.500000
Ke 0.000000 0.000000 0.000000
Ni 1.000000
d 1.000000
illum 2

newmtl Material.002_UVmap
Ns 96.078431
Ka 1.000000 1.000000 1.000000
Kd 0.231994 0.231994 0.231994
Ks 0.500000 0.500000 0.500000
Ke 0.000000 0.000000 0.000000
Ni 1.000000
d 1.000000
illum 2

newmtl Material.003
Ns 96.078431
Ka 1.000000 1.000000 1.000000
Kd 0.048212 0.071679 0.040185
Ks 0.025114 0.025114 0.025114
Ke 0.000000 0.000000 0.000000
Ni 1.000000
d 1.000000
illum 2

newmtl Material.003_NONE
Ns 96.078431
Ka 1.000000 1.000000 1.000000
Kd 0.048212 0.071679 0.040185
Ks 0.025114 0.025114 0.025114
Ke 0.000000 0.000000 0.000000
Ni 1.000000
d 1.000000
illum 2

newmtl Material_UVmap
Ns 96.078431
Ka 1.000000 1.000000 1.000000
Kd 0.044758 0.044758 0.044758
Ks 0.500000 0.500000 0.500000
Ke 0.000000 0.000000 0.000000
Ni 1.000000
d 1.000000
illum 2

newmtl None
Ns 0
Ka 0.000000 0.000000 0.000000
Kd 0.8 0.8 0.8
Ks 0.8 0.8 0.8
d 1
illum 2
